Biostat 203B Homework 3
…
icustays_tble<-read_csv("~/mimic/icu/icustays.csv.gz")|>
    print(width=Inf)

Rows: 73181 Columns: 8
── Column specification ────────────────────────────────────────────────────────
Delimiter: ","
chr  (2): first_careunit, last_careunit
dbl  (4): subject_id, hadm_id, stay_id, los
dttm (2): intime, outtime

ℹ Use `spec()` to retrieve the full column specification for this data.
ℹ Specify the column types or set `show_col_types = FALSE` to quiet this message.

# A tibble: 73,181 × 8
   subject_id  hadm_id  stay_id first_careunit                                  
        <dbl>    <dbl>    <dbl> <chr>                                           
 1   10000032 29079034 39553978 Medical Intensive Care Unit (MICU)              
 2   10000980 26913865 39765666 Medical Intensive Care Unit (MICU)              
 3   10001217 24597018 37067082 Surgical Intensive Care Unit (SICU)             
 4   10001217 27703517 34592300 Surgical Intensive Care Unit (SICU)             
 5   10001725 25563031 31205490 Medical/Surgical Intensive Care Unit (MICU/SICU)
 6   10001884 26184834 37510196 Medical Intensive Care Unit (MICU)              
 7   10002013 23581541 39060235 Cardiac Vascular Intensive Care Unit (CVICU)    
 8   10002155 20345487 32358465 Medical Intensive Care Unit (MICU)              
 9   10002155 23822395 33685454 Coronary Care Unit (CCU)                        
10   10002155 28994087 31090461 Medical/Surgical Intensive Care Unit (MICU/SICU)
   last_careunit                                    intime             
   <chr>                                            <dttm>             
 1 Medical Intensive Care Unit (MICU)               2180-07-23 14:00:00
 2 Medical Intensive Care Unit (MICU)               2189-06-27 08:42:00
 3 Surgical Intensive Care Unit (SICU)              2157-11-20 19:18:02
 4 Surgical Intensive Care Unit (SICU)              2157-12-19 15:42:24
 5 Medical/Surgical Intensive Care Unit (MICU/SICU) 2110-04-11 15:52:22
 6 Medical Intensive Care Unit (MICU)               2131-01-11 04:20:05
 7 Cardiac Vascular Intensive Care Unit (CVICU)     2160-05-18 10:00:53
 8 Medical Intensive Care Unit (MICU)               2131-03-09 21:33:00
 9 Coronary Care Unit (CCU)                         2129-08-04 12:45:00
10 Medical/Surgical Intensive Care Unit (MICU/SICU) 2130-09-24 00:50:00
   outtime               los
   <dttm>              <dbl>
 1 2180-07-23 23:50:47 0.410
 2 2189-06-27 20:38:27 0.498
 3 2157-11-21 22:08:00 1.12 
 4 2157-12-20 14:27:41 0.948
 5 2110-04-12 23:59:56 1.34 
 6 2131-01-20 08:27:30 9.17 
 7 2160-05-19 17:33:33 1.31 
 8 2131-03-10 18:09:21 0.859
 9 2129-08-10 17:02:38 6.18 
10 2130-09-27 22:13:41 3.89 
# ℹ 73,171 more rows
…
admissions_tble<-read_csv("~/mimic/hosp/admissions.csv.gz")|>
    print(width=Inf)

Rows: 431231 Columns: 16
── Column specification ────────────────────────────────────────────────────────
Delimiter: ","
chr  (8): admission_type, admit_provider_id, admission_location, discharge_l...
dbl  (3): subject_id, hadm_id, hospital_expire_flag
dttm (5): admittime, dischtime, deathtime, edregtime, edouttime

ℹ Use `spec()` to retrieve the full column specification for this data.
ℹ Specify the column types or set `show_col_types = FALSE` to quiet this message.

# A tibble: 431,231 × 16
   subject_id  hadm_id admittime           dischtime           deathtime
        <dbl>    <dbl> <dttm>              <dttm>              <dttm>   
 1   10000032 22595853 2180-05-06 22:23:00 2180-05-07 17:15:00 NA       
 2   10000032 22841357 2180-06-26 18:27:00 2180-06-27 18:49:00 NA       
 3   10000032 25742920 2180-08-05 23:44:00 2180-08-07 17:50:00 NA       
 4   10000032 29079034 2180-07-23 12:35:00 2180-07-25 17:55:00 NA       
 5   10000068 25022803 2160-03-03 23:16:00 2160-03-04 06:26:00 NA       
 6   10000084 23052089 2160-11-21 01:56:00 2160-11-25 14:52:00 NA       
 7   10000084 29888819 2160-12-28 05:11:00 2160-12-28 16:07:00 NA       
 8   10000108 27250926 2163-09-27 23:17:00 2163-09-28 09:04:00 NA       
 9   10000117 22927623 2181-11-15 02:05:00 2181-11-15 14:52:00 NA       
10   10000117 27988844 2183-09-18 18:10:00 2183-09-21 16:30:00 NA       
   admission_type    admit_provider_id admission_location     discharge_location
   <chr>             <chr>             <chr>                  <chr>             
 1 URGENT            P874LG            TRANSFER FROM HOSPITAL HOME              
 2 EW EMER.          P09Q6Y            EMERGENCY ROOM         HOME              
 3 EW EMER.          P60CC5            EMERGENCY ROOM         HOSPICE           
 4 EW EMER.          P30KEH            EMERGENCY ROOM         HOME              
 5 EU OBSERVATION    P51VDL            EMERGENCY ROOM         <NA>              
 6 EW EMER.          P6957U            WALK-IN/SELF REFERRAL  HOME HEALTH CARE  
 7 EU OBSERVATION    P63AD6            PHYSICIAN REFERRAL     <NA>              
 8 EU OBSERVATION    P38XXV            EMERGENCY ROOM         <NA>              
 9 EU OBSERVATION    P2358X            EMERGENCY ROOM         <NA>              
10 OBSERVATION ADMIT P75S70            WALK-IN/SELF REFERRAL  HOME HEALTH CARE  
   insurance language marital_status race  edregtime          
   <chr>     <chr>    <chr>          <chr> <dttm>             
 1 Other     ENGLISH  WIDOWED        WHITE 2180-05-06 19:17:00
 2 Medicaid  ENGLISH  WIDOWED        WHITE 2180-06-26 15:54:00
 3 Medicaid  ENGLISH  WIDOWED        WHITE 2180-08-05 20:58:00
 4 Medicaid  ENGLISH  WIDOWED        WHITE 2180-07-23 05:54:00
 5 Other     ENGLISH  SINGLE         WHITE 2160-03-03 21:55:00
 6 Medicare  ENGLISH  MARRIED        WHITE 2160-11-20 20:36:00
 7 Medicare  ENGLISH  MARRIED        WHITE 2160-12-27 18:32:00
 8 Other     ENGLISH  SINGLE         WHITE 2163-09-27 16:18:00
 9 Other     ENGLISH  DIVORCED       WHITE 2181-11-14 21:51:00
10 Other     ENGLISH  DIVORCED       WHITE 2183-09-18 08:41:00
   edouttime           hospital_expire_flag
   <dttm>                             <dbl>
 1 2180-05-06 23:30:00                    0
 2 2180-06-26 21:31:00                    0
 3 2180-08-06 01:44:00                    0
 4 2180-07-23 14:00:00                    0
 5 2160-03-04 06:26:00                    0
 6 2160-11-21 03:20:00                    0
 7 2160-12-28 16:07:00                    0
 8 2163-09-28 09:04:00                    0
 9 2181-11-15 09:57:00                    0
10 2183-09-18 20:20:00                    0
# ℹ 431,221 more rows
…
patients_tble<-read_csv("~/mimic/hosp/patients.csv.gz")|>
    print(width=Inf)

Rows: 299712 Columns: 6
── Column specification ────────────────────────────────────────────────────────
Delimiter: ","
chr  (2): gender, anchor_year_group
dbl  (3): subject_id, anchor_age, anchor_year
date (1): dod

ℹ Use `spec()` to retrieve the full column specification for this data.
ℹ Specify the column types or set `show_col_types = FALSE` to quiet this message.

# A tibble: 299,712 × 6
   subject_id gender anchor_age anchor_year anchor_year_group dod       
        <dbl> <chr>       <dbl>       <dbl> <chr>             <date>    
 1   10000032 F              52        2180 2014 - 2016       2180-09-09
 2   10000048 F              23        2126 2008 - 2010       NA        
 3   10000068 F              19        2160 2008 - 2010       NA        
 4   10000084 M              72        2160 2017 - 2019       2161-02-13
 5   10000102 F              27        2136 2008 - 2010       NA        
 6   10000108 M              25        2163 2014 - 2016       NA        
 7   10000115 M              24        2154 2017 - 2019       NA        
 8   10000117 F              48        2174 2008 - 2010       NA        
 9   10000178 F              59        2157 2017 - 2019       NA        
10   10000248 M              34        2192 2014 - 2016       NA        
# ℹ 299,702 more rows
…
Hint: Use the Parquet format you generated in Homework 2. For reproducibility, make labevents_pq folder available at the current working directory hw3, for example, by a symbolic link.

Q5 Answer

labevents_tble<-read_parquet("~/mimic/hosp/labevents.parquet/part-0.parquet")|>
  filter((subject_id %in% icustays_tble$subject_id)&(itemid %in% c(50912, 50971, 50983, 50902, 50882, 51221, 51301, 50931)))|>
    print(width=Inf)

# A tibble: 13,473,870 × 16
   labevent_id subject_id hadm_id specimen_id itemid order_provider_id
         <int>      <int>   <int>       <int>  <int> <chr>            
 1          10   10000032      NA    52958335  50882 "P28Z0X"         
 2          14   10000032      NA    52958335  50902 "P28Z0X"         
 3          19   10000032      NA    52958335  50912 "P28Z0X"         
 4          33   10000032      NA    52958335  50971 "P28Z0X"         
 5          34   10000032      NA    52958335  50983 "P28Z0X"         
 6          60   10000032      NA    73913913  50931 "P28Z0X"         
 7          63   10000032      NA    81886159  51221 "P28Z0X"         
 8          75   10000032      NA    81886159  51301 "P28Z0X"         
 9          78   10000032      NA    31644093  51221 ""               
10          89   10000032      NA    31644093  51301 ""               
   charttime           storetime           value valuenum valueuom
   <dttm>              <dttm>              <chr>    <dbl> <chr>   
 1 2180-03-23 04:51:00 2180-03-23 09:40:00 27        27   mEq/L   
 2 2180-03-23 04:51:00 2180-03-23 09:40:00 101      101   mEq/L   
 3 2180-03-23 04:51:00 2180-03-23 09:40:00 0.4        0.4 mg/dL   
 4 2180-03-23 04:51:00 2180-03-23 09:40:00 3.7        3.7 mEq/L   
 5 2180-03-23 04:51:00 2180-03-23 09:40:00 136      136   mEq/L   
 6 2180-03-23 04:51:00 2180-03-23 08:56:00 ___       95   mg/dL   
 7 2180-03-23 04:51:00 2180-03-23 08:19:00 45.4      45.4 %       
 8 2180-03-23 04:51:00 2180-03-23 08:19:00 3.0        3   K/uL    
 9 2180-05-06 15:25:00 2180-05-06 15:42:00 42.6      42.6 %       
10 2180-05-06 15:25:00 2180-05-06 15:42:00 5.0        5   K/uL    
   ref_range_lower ref_range_upper flag       priority
             <dbl>           <dbl> <chr>      <chr>   
 1            22              32   ""         ROUTINE 
 2            96             108   ""         ROUTINE 
 3             0.4             1.1 ""         ROUTINE 
 4             3.3             5.1 ""         ROUTINE 
 5           133             145   ""         ROUTINE 
 6            70             100   ""         ROUTINE 
 7            36              48   ""         ROUTINE 
 8             4              11   "abnormal" ROUTINE 
 9            36              48   ""         STAT    
10             4              11   ""         STAT    
   comments                                               
   <chr>                                                  
 1 ""                                                     
 2 ""                                                     
 3 ""                                                     
 4 ""                                                     
 5 ""                                                     
 6 "IF FASTING, 70-100 NORMAL, >125 PROVISIONAL DIABETES."
 7 ""                                                     
 8 ""                                                     
 9 ""                                                     
10 ""                                                     
# ℹ 13,473,860 more rows
…
Warning in left_join(., select(icustays_tble, subject_id, stay_id, intime), : Detected an unexpected many-to-many relationship between `x` and `y`.
ℹ Row 845 of `x` matches multiple rows in `y`.
ℹ Row 1 of `y` matches multiple rows in `x`.
ℹ If a many-to-many relationship is expected, set `relationship =
  "many-to-many"` to silence this warning.

labevents_tble<-labevents_tble|>
  group_by(subject_id,stay_id,measure)|>
  filter(storetime==max(storetime))|>
  select(subject_id,stay_id,measure,valuenum)|>
  pivot_wider(names_from = measure, values_from = valuenum, values_fn = list(valuenum = last))|>
  print(width=Inf)

# A tibble: 68,467 × 10
# Groups:   subject_id, stay_id [68,467]
   subject_id  stay_id Hematocrit `White Blood Cells` Bicarbonate Chloride
        <dbl>    <dbl>      <dbl>               <dbl>       <dbl>    <dbl>
 1   10000032 39553978       41.1                 6.9          25       95
 2   10000980 39765666       27.3                 5.3          21      109
 3   10001217 37067082       38.1                15.7          22      108
 4   10001217 34592300       37.4                 5.4          30      104
 5   10001725 31205490       NA                  NA            NA       98
 6   10001884 37510196       39.7                12.2          30       88
 7   10002013 39060235       34.9                 7.2          24      102
 8   10002155 33685454       39.7                 7.9          24      105
 9   10002155 31090461       25.5                17.9          23       98
10   10002155 32358465       22.4                 9.8          26       85
   Creatinine Glucose Potassium Sodium
        <dbl>   <dbl>     <dbl>  <dbl>
 1        0.7     102       6.7    126
 2        2.3      89       3.9    144
 3        0.6     112       4.2    142
 4        0.5      87       4.1    142
 5       NA        NA       4.1    139
 6        1.1     141       4.5    130
 7        0.9     288       3.5    137
 8        1.1     138       4.6    139
 9        2.8     117       4.9    135
10        1.4     133       5.7    120
# ℹ 68,457 more rows
…
We are interested in the vitals for ICU patients: heart rate (220045), systolic non-invasive blood pressure (220179), diastolic non-invasive blood pressure (220180), body temperature in Fahrenheit (223761), and respiratory rate (220210). Retrieve a subset of chartevents.csv.gz only containing these items for the patients in icustays_tble. Further restrict to the first vital measurement within the ICU stay. The final chartevents_tble should have one row per ICU stay and columns for each vital measurement.

Q6 Answer

chartevents_tble<-read_parquet("~/mimic/icu/chartevents.parquet/part-0.parquet")|>
  filter((subject_id %in% icustays_tble$subject_id)&(itemid %in% c(220045, 220179, 220180, 223761, 220210)))|>
    print(width=Inf)

# A tibble: 22,504,119 × 11
   subject_id  hadm_id  stay_id caregiver_id charttime          
        <dbl>    <dbl>    <dbl>        <dbl> <dttm>             
 1   10000032 29079034 39553978        47007 2180-07-23 21:01:00
 2   10000032 29079034 39553978        47007 2180-07-23 21:01:00
 3   10000032 29079034 39553978        47007 2180-07-23 22:00:00
 4   10000032 29079034 39553978        47007 2180-07-23 22:00:00
 5   10000032 29079034 39553978        47007 2180-07-23 22:00:00
 6   10000032 29079034 39553978        47007 2180-07-23 22:00:00
 7   10000032 29079034 39553978        66056 2180-07-23 19:00:00
 8   10000032 29079034 39553978        66056 2180-07-23 19:00:00
 9   10000032 29079034 39553978        66056 2180-07-23 19:00:00
10   10000032 29079034 39553978        66056 2180-07-23 19:00:00
   storetime           itemid value valuenum valueuom warning
   <dttm>               <dbl> <chr>    <dbl> <chr>      <dbl>
 1 2180-07-23 22:15:00 220179 82          82 mmHg           0
 2 2180-07-23 22:15:00 220180 59          59 mmHg           0
 3 2180-07-23 22:15:00 220045 94          94 bpm            0
 4 2180-07-23 22:15:00 220179 85          85 mmHg           0
 5 2180-07-23 22:15:00 220180 55          55 mmHg           0
 6 2180-07-23 22:15:00 220210 20          20 insp/min       0
 7 2180-07-23 19:59:00 220045 97          97 bpm            0
 8 2180-07-23 19:59:00 220179 93          93 mmHg           0
 9 2180-07-23 19:59:00 220180 41          41 mmHg           0
10 2180-07-23 19:59:00 220210 16          16 insp/min       0
# ℹ 22,504,109 more rows
…
chartevents_tble<-chartevents_tble%>%
  filter(charttime >= intime & charttime <= outtime)

chartevents_tble<-chartevents_tble|>
  group_by(subject_id,stay_id,vital)|>
  filter(charttime==min(charttime))|>
  select(subject_id,stay_id,vital,value)|>
  pivot_wider(names_from = vital, values_from = value, values_fn = list(value = last))|>
  print(width=Inf)

# A tibble: 73,164 × 7
# Groups:   subject_id, stay_id [73,164]
   subject_id  stay_id `Temperature Fahrenheit`
        <dbl>    <dbl> <chr>                   
 1   10000032 39553978 98.7                    
 2   10000980 39765666 98                      
 3   10001217 37067082 98.5                    
 4   10001217 34592300 97.6                    
 5   10001725 31205490 97.7                    
 6   10001884 37510196 98.1                    
 7   10002013 39060235 97.2                    
 8   10002155 32358465 97.7                    
 9   10002155 33685454 95.9                    
10   10002155 31090461 96.9                    
   `Non Invasive Blood Pressure systolic`
   <chr>                                 
 1 84                                    
 2 150                                   
 3 151                                   
 4 167                                   
 5 73                                    
 6 180                                   
 7 104                                   
 8 109                                   
 9 126                                   
10 118                                   
   `Non Invasive Blood Pressure diastolic` `Heart Rate` `Respiratory Rate`
   <chr>                                   <chr>        <chr>             
 1 48                                      91           24                
 2 77                                      77           23                
 3 90                                      86           18                
 4 95                                      96           11                
 5 56                                      55           19                
 6 12                                      38           10                
 7 70                                      80           14                
 8 65                                      98           23                
 9 61                                      68           18                
10 51                                      94           18                
# ℹ 73,154 more rows
…
Since the box plot is not very clear, we can use the following code to get the summary:

mimic_icu_cohort%>%
  group_by(race)%>%
  summarize(mean_value = mean(los),
            median_value = median(los),
            min_value = min(los),
            max_value = max(los),
            range= max_value - min_value)

# A tibble: 33 × 6
   race                        mean_value median_value min_value max_value range
   <chr>                            <dbl>        <dbl>     <dbl>     <dbl> <dbl>
 1 AMERICAN INDIAN/ALASKA NAT…       4.46         2.09   0.0879       49.9  49.8
 2 ASIAN                             3.49         1.93   0.0631       59.5  59.4
 3 ASIAN - ASIAN INDIAN              4.20         1.95   0.160        66.3  66.1
 4 ASIAN - CHINESE                   3.36         1.86   0.0206       77.7  77.7
 5 ASIAN - KOREAN                    4.23         2.08   0.211        39.4  39.2
 6 ASIAN - SOUTH EAST ASIAN          3.05         1.83   0.0784       76.1  76.0
 7 BLACK/AFRICAN                     3.82         2.02   0.0345       54.8  54.8
 8 BLACK/AFRICAN AMERICAN            3.28         1.85   0.00346      95.8  95.8
 9 BLACK/CAPE VERDEAN                3.22         1.70   0.0296       51.7  51.6
10 BLACK/CARIBBEAN ISLAND            3.61         1.95   0.0445       38.2  38.2
# ℹ 23 more rows
…
