Biostat 203B Homework 5
…
Main Arguments:
  penalty = tune()
  mixture = tune()

Computational engine: glmnet 

param_grid <- grid_regular(
  penalty(range = c(-6, 3)), 
  mixture(),
  levels = c(100, 5)
  ) |>
  print()

# A tibble: 500 × 2
      penalty mixture
        <dbl>   <dbl>
 1 0.000001         0
 2 0.00000123       0
 3 0.00000152       0
 4 0.00000187       0
 5 0.00000231       0
 6 0.00000285       0
 7 0.00000351       0
 8 0.00000433       0
 9 0.00000534       0
10 0.00000658       0
# ℹ 490 more rows
…
logit_fit |>
  # aggregate metrics from K folds
  collect_metrics() |>
  print(width = Inf) |>
  filter(.metric == "roc_auc") |>
  ggplot(mapping = aes(x = penalty, y = mean, color = factor(mixture))) +
  geom_point() +
  labs(x = "Penalty", y = "CV AUC") +
  scale_x_log10()

# A tibble: 1,000 × 8
      penalty mixture .metric  .estimator  mean     n std_err
        <dbl>   <dbl> <chr>    <chr>      <dbl> <int>   <dbl>
 1 0.000001         0 accuracy binary     0.573     5 0.00327
 2 0.000001         0 roc_auc  binary     0.599     5 0.00255
 3 0.00000123       0 accuracy binary     0.573     5 0.00327
 4 0.00000123       0 roc_auc  binary     0.599     5 0.00255
 5 0.00000152       0 accuracy binary     0.573     5 0.00327
 6 0.00000152       0 roc_auc  binary     0.599     5 0.00255
 7 0.00000187       0 accuracy binary     0.573     5 0.00327
 8 0.00000187       0 roc_auc  binary     0.599     5 0.00255
 9 0.00000231       0 accuracy binary     0.573     5 0.00327
10 0.00000231       0 roc_auc  binary     0.599     5 0.00255
   .config               
   <chr>                 
 1 Preprocessor1_Model001
 2 Preprocessor1_Model001
 3 Preprocessor1_Model002
 4 Preprocessor1_Model002
 5 Preprocessor1_Model003
 6 Preprocessor1_Model003
 7 Preprocessor1_Model004
 8 Preprocessor1_Model004
 9 Preprocessor1_Model005
10 Preprocessor1_Model005
# ℹ 990 more rows
…
Main Arguments:
  mtry = tune()
  trees = tune()

Computational engine: ranger 

param_grid <- grid_regular(
  trees(range = c(100L, 200L)), 
  mtry(range = c(1L, 5L)),
  levels = c(5, 5)
  )
param_grid

# A tibble: 25 × 2
   trees  mtry
   <int> <int>
 1   100     1
 2   125     1
 3   150     1
 4   175     1
 5   200     1
 6   100     2
 7   125     2
 8   150     2
 9   175     2
10   200     2
# ℹ 15 more rows
…
rf_fit |>
  collect_metrics() |>
  print(width = Inf) |>
  filter(.metric == "roc_auc") |>
  ggplot(mapping = aes(x = trees, y = mean, color = factor(mtry))) +
  geom_point() + 
  # geom_line() + 
  labs(x = "Num. of Trees", y = "CV AUC")

# A tibble: 50 × 8
    mtry trees .metric  .estimator  mean     n std_err .config              
   <int> <int> <chr>    <chr>      <dbl> <int>   <dbl> <chr>                
 1     1   100 accuracy binary     0.580     5 0.00205 Preprocessor1_Model01
 2     1   100 roc_auc  binary     0.620     5 0.00168 Preprocessor1_Model01
 3     1   125 accuracy binary     0.580     5 0.00390 Preprocessor1_Model02
 4     1   125 roc_auc  binary     0.620     5 0.00193 Preprocessor1_Model02
 5     1   150 accuracy binary     0.586     5 0.00393 Preprocessor1_Model03
 6     1   150 roc_auc  binary     0.623     5 0.00152 Preprocessor1_Model03
 7     1   175 accuracy binary     0.587     5 0.00456 Preprocessor1_Model04
 8     1   175 roc_auc  binary     0.624     5 0.00199 Preprocessor1_Model04
 9     1   200 accuracy binary     0.582     5 0.00399 Preprocessor1_Model05
10     1   200 roc_auc  binary     0.623     5 0.00244 Preprocessor1_Model05
# ℹ 40 more rows
…
Main Arguments:
  trees = 100
  tree_depth = tune()
  learn_rate = tune()

Computational engine: xgboost 

param_grid <- grid_regular(
  tree_depth(range = c(1L, 3L)),
  learn_rate(range = c(-5, 2), trans = log10_trans()),
  levels = c(3, 10)
  )
param_grid

# A tibble: 30 × 2
   tree_depth learn_rate
        <int>      <dbl>
 1          1  0.00001  
 2          2  0.00001  
 3          3  0.00001  
 4          1  0.0000599
 5          2  0.0000599
 6          3  0.0000599
 7          1  0.000359 
 8          2  0.000359 
 9          3  0.000359 
10          1  0.00215  
# ℹ 20 more rows
…
gb_fit |>
  collect_metrics() |>
  print(width = Inf) |>
  filter(.metric == "roc_auc") |>
  ggplot(mapping = aes(x = learn_rate, y = mean, color = factor(tree_depth))) +
  geom_point() +
  labs(x = "Learning Rate", y = "CV AUC") +
  scale_x_log10()

# A tibble: 60 × 8
   tree_depth learn_rate .metric  .estimator  mean     n std_err
        <int>      <dbl> <chr>    <chr>      <dbl> <int>   <dbl>
 1          1  0.00001   accuracy binary     0.537     5 0.00337
 2          1  0.00001   roc_auc  binary     0.536     5 0.00282
 3          2  0.00001   accuracy binary     0.537     5 0.00399
 4          2  0.00001   roc_auc  binary     0.550     5 0.00328
 5          3  0.00001   accuracy binary     0.549     5 0.00321
 6          3  0.00001   roc_auc  binary     0.563     5 0.00386
 7          1  0.0000599 accuracy binary     0.537     5 0.00337
 8          1  0.0000599 roc_auc  binary     0.536     5 0.00282
 9          2  0.0000599 accuracy binary     0.538     5 0.00265
10          2  0.0000599 roc_auc  binary     0.552     5 0.00310
   .config              
   <chr>                
 1 Preprocessor1_Model01
 2 Preprocessor1_Model01
 3 Preprocessor1_Model02
 4 Preprocessor1_Model02
 5 Preprocessor1_Model03
 6 Preprocessor1_Model03
 7 Preprocessor1_Model04
 8 Preprocessor1_Model04
 9 Preprocessor1_Model05
10 Preprocessor1_Model05
# ℹ 50 more rows
…
collect_parameters(mimic_model_st, "logit_res")

# A tibble: 132 × 5
   member           penalty mixture terms                       coef
   <chr>              <dbl>   <dbl> <chr>                      <dbl>
 1 logit_res_1_001 0.000001       0 .pred_TRUE_logit_res_1_001     0
 2 logit_res_1_043 0.00658        0 .pred_TRUE_logit_res_1_043     0
 3 logit_res_1_044 0.00811        0 .pred_TRUE_logit_res_1_044     0
 4 logit_res_1_045 0.01           0 .pred_TRUE_logit_res_1_045     0
 5 logit_res_1_046 0.0123         0 .pred_TRUE_logit_res_1_046     0
 6 logit_res_1_047 0.0152         0 .pred_TRUE_logit_res_1_047     0
 7 logit_res_1_048 0.0187         0 .pred_TRUE_logit_res_1_048     0
 8 logit_res_1_049 0.0231         0 .pred_TRUE_logit_res_1_049     0
 9 logit_res_1_050 0.0285         0 .pred_TRUE_logit_res_1_050     0
10 logit_res_1_051 0.0351         0 .pred_TRUE_logit_res_1_051     0
# ℹ 122 more rows

collect_parameters(mimic_model_st, "rf_res")

# A tibble: 25 × 5
   member       mtry trees terms                    coef
   <chr>       <int> <int> <chr>                   <dbl>
 1 rf_res_1_01     1   100 .pred_TRUE_rf_res_1_01 0     
 2 rf_res_1_02     1   200 .pred_TRUE_rf_res_1_02 0     
 3 rf_res_1_03     1   300 .pred_TRUE_rf_res_1_03 0     
 4 rf_res_1_04     1   400 .pred_TRUE_rf_res_1_04 0     
 5 rf_res_1_05     1   500 .pred_TRUE_rf_res_1_05 0     
 6 rf_res_1_06     2   100 .pred_TRUE_rf_res_1_06 0     
 7 rf_res_1_07     2   200 .pred_TRUE_rf_res_1_07 0.0898
 8 rf_res_1_08     2   300 .pred_TRUE_rf_res_1_08 0.786 
 9 rf_res_1_09     2   400 .pred_TRUE_rf_res_1_09 0.172 
10 rf_res_1_10     2   500 .pred_TRUE_rf_res_1_10 0     
# ℹ 15 more rows

collect_parameters(mimic_model_st, "gb_res")

# A tibble: 30 × 5
   member      tree_depth learn_rate terms                   coef
   <chr>            <int>      <dbl> <chr>                  <dbl>
 1 gb_res_1_01          1  0.00001   .pred_TRUE_gb_res_1_01     0
 2 gb_res_1_02          2  0.00001   .pred_TRUE_gb_res_1_02     0
 3 gb_res_1_03          3  0.00001   .pred_TRUE_gb_res_1_03     0
 4 gb_res_1_04          1  0.0000599 .pred_TRUE_gb_res_1_04     0
 5 gb_res_1_05          2  0.0000599 .pred_TRUE_gb_res_1_05     0
 6 gb_res_1_06          3  0.0000599 .pred_TRUE_gb_res_1_06     0
 7 gb_res_1_07          1  0.000359  .pred_TRUE_gb_res_1_07     0
 8 gb_res_1_08          2  0.000359  .pred_TRUE_gb_res_1_08     0
 9 gb_res_1_09          3  0.000359  .pred_TRUE_gb_res_1_09     0
10 gb_res_1_10          1  0.00215   .pred_TRUE_gb_res_1_10     0
# ℹ 20 more rows
…
